…
```r
library(tidyverse)
library(ourworldindata)
```


```r
health <- financing_healthcare[-1,]

# select country
health %>% count(country)
```

```
## # A tibble: 318 x 2
##    country                   n
##    <chr>                 <int>
##  1 Afghanistan             211
##  2 Akrotiri and Dhekelia     1
##  3 Aland Islands             1
##  4 Albania                 207
##  5 Algeria                 207
##  6 American Samoa            1
##  7 Andorra                  25
##  8 Angola                  215
##  9 Anguilla                  1
## 10 Antarctica                1
## # ... with 308 more rows
```
…
