…
#### Now we need to "tidy" the data. Use the contestant_period column to create new month_end and year_end columns. (Try using separate() and/or extract() from tidyr. Save your tidy data as an .rds object)


```r
tidy_data <- data %>% 
  separate(contest_period, c("month_start", "month_end_year"), sep = "-") %>% 
  separate(month_end_year, c("month_end", "year_end"), sep = -4) %>% 
  select(-month_start)

tidy_data
```

```
## # A tibble: 300 x 4
##    month_end year_end variable value
##    <chr>     <chr>    <chr>    <dbl>
##  1 June      1990     PROS      12.7
##  2 July      1990     PROS      26.4
##  3 August    1990     PROS       2.5
##  4 September 1990     PROS     -20  
##  5 October   1990     PROS     -37.8
##  6 November  1990     PROS     -33.3
##  7 December  1990     PROS     -10.2
##  8 January   1991     PROS     -20.3
##  9 February  1991     PROS      38.9
## 10 March     1991     PROS      20.2
## # ... with 290 more rows
```
…
