…
```r
# ?starwars # Get explanation of dataset.

starwars %>% count(species) # Goes into dataset and counts number of values in a column (in this case species).
```

```
## # A tibble: 38 x 2
##    species       n
##    <chr>     <int>
##  1 Aleena        1
##  2 Besalisk      1
##  3 Cerean        1
##  4 Chagrian      1
##  5 Clawdite      1
##  6 Droid         6
##  7 Dug           1
##  8 Ewok          1
##  9 Geonosian     1
## 10 Gungan        3
## # ... with 28 more rows
```
…
#### Missing values


```r
star <- starwars %>% filter(between(height, 100, 200))
star
```

```
## # A tibble: 64 x 14
##    name  height  mass hair_color skin_color eye_color birth_year sex   gender
##    <chr>  <int> <dbl> <chr>      <chr>      <chr>          <dbl> <chr> <chr> 
##  1 Luke~    172    77 blond      fair       blue            19   male  mascu~
##  2 C-3PO    167    75 <NA>       gold       yellow         112   none  mascu~
##  3 Leia~    150    49 brown      light      brown           19   fema~ femin~
##  4 Owen~    178   120 brown, gr~ light      blue            52   male  mascu~
##  5 Beru~    165    75 brown      light      blue            47   fema~ femin~
##  6 Bigg~    183    84 black      light      brown           24   male  mascu~
##  7 Obi-~    182    77 auburn, w~ fair       blue-gray       57   male  mascu~
##  8 Anak~    188    84 blond      fair       blue            41.9 male  mascu~
##  9 Wilh~    180    NA auburn, g~ fair       blue            64   male  mascu~
## 10 Han ~    180    80 brown      fair       brown           29   male  mascu~
## # ... with 54 more rows, and 5 more variables: homeworld <chr>, species <chr>,
## #   films <list>, vehicles <list>, starships <list>
```
…
